#### frame 15 ####
12
18
24
25
44
53
57
59
60
62
63
68
74
75
84
85
87
94
95
97
100
104
110
126
128
130
134
135
138
140
141
150
157
165
168
184
193
196
199
200
201
205
206
209
210
211
215
216
218
219
222
225
226
228
229
236
238
242
243
247
248
249
254
257
258
260
271
281
282
283
284
285
296
299
303
305
310
311
#### frame 16 ####
