#### frame 1173 ####
16
57
60
65
66
68
69
76
90
94
95
97
123
124
125
126
129
130
132
133
134
135
140
148
151
153
156
157
165
170
171
172
173
175
176
180
181
182
183
186
187
188
191
193
196
198
200
201
202
209
214
215
218
222
224
225
229
230
232
238
240
241
247
248
249
250
252
253
254
255
257
258
260
261
263
264
265
269
270
279
283
284
288
291
294
295
296
298
299
302
303
304
306
307
308
311
312
313
#### frame 1174 ####
