#### frame 18 ####
12
22
23
44
53
57
59
61
62
63
67
70
74
76
85
90
117
121
125
126
128
129
136
138
141
149
154
155
160
161
165
166
167
169
170
171
172
174
175
176
177
179
181
183
184
185
187
188
189
190
191
192
193
194
195
196
197
198
199
200
201
202
203
204
205
206
210
211
212
213
214
215
217
218
219
220
221
222
223
224
225
226
227
228
230
236
238
240
252
257
258
260
266
269
270
279
283
284
289
290
291
293
294
298
299
304
305
306
307
310
311
#### frame 19 ####
