#### frame 14 ####
2
5
8
12
13
14
18
19
20
21
25
26
27
36
38
39
42
43
45
50
54
55
57
58
60
61
65
67
68
69
75
76
83
92
94
98
103
118
125
126
130
134
140
141
143
150
151
157
159
165
166
168
171
174
175
183
193
195
203
204
216
223
224
225
226
231
232
236
243
247
257
258
259
284
288
290
291
292
293
297
299
300
302
303
304
306
308
311
312
313
314
#### frame 15 ####
