#### frame 14 ####
2
14
28
74
75
76
78
84
85
89
90
94
111
114
117
126
128
132
136
143
151
153
156
157
160
165
168
169
172
174
188
192
195
196
197
198
200
204
205
206
209
210
211
212
213
216
217
220
225
231
238
239
240
243
247
248
249
250
257
273
276
277
278
279
280
281
282
283
284
287
289
291
293
294
295
297
298
301
303
304
305
306
314
#### frame 15 ####
