#### frame 609 ####
22
23
25
28
29
30
31
40
44
61
67
74
75
76
85
90
95
97
103
112
121
125
126
128
129
130
132
134
135
136
138
143
148
156
157
165
171
174
175
176
177
196
201
205
206
209
210
214
215
223
224
225
227
228
229
230
231
239
240
247
248
249
257
261
269
270
275
281
282
283
284
288
289
291
293
294
296
297
298
299
300
301
302
304
306
308
311
313
314
#### frame 610 ####
