#### frame 26 ####
44
50
57
59
60
64
65
66
70
75
76
78
83
84
85
95
97
117
121
125
135
136
138
140
143
153
156
157
158
165
174
175
181
183
186
187
190
191
194
195
196
198
199
201
202
203
205
206
207
208
210
211
212
213
214
215
216
221
222
225
226
227
228
230
231
232
236
238
239
240
241
245
248
252
253
255
260
263
264
267
268
269
270
272
273
274
275
279
284
285
286
287
288
289
290
291
292
293
294
295
296
297
298
299
300
301
302
305
306
307
308
#### frame 27 ####
