#### frame 359 ####
4
5
9
10
39
61
65
67
68
69
75
76
78
84
85
90
92
94
103
118
121
125
126
128
129
130
132
133
134
135
136
138
143
156
158
167
168
174
175
181
190
193
195
197
198
200
201
202
203
204
206
221
224
225
229
230
231
239
240
248
258
259
260
269
280
281
284
295
296
300
301
304
309
310
#### frame 360 ####
