#### frame 123 ####
1
2
4
5
9
10
22
23
25
67
68
74
75
76
84
90
91
92
94
95
97
98
128
132
133
136
138
140
143
148
150
157
158
160
168
169
170
171
173
174
175
181
183
184
185
187
188
192
193
196
197
198
210
211
212
213
229
231
232
240
243
249
252
257
258
260
267
270
271
272
275
276
277
279
281
283
284
289
290
291
294
295
296
297
298
303
304
307
309
310
314
#### frame 124 ####
