#### frame 10 ####
34
40
61
62
63
67
68
78
94
95
97
99
105
106
107
109
121
123
125
126
127
128
129
130
132
136
140
141
151
153
156
165
166
170
171
174
175
181
184
187
193
195
196
197
198
199
200
204
205
206
209
210
211
217
218
219
220
221
222
223
224
225
227
228
229
231
232
233
234
238
240
247
248
249
261
262
267
272
273
274
276
284
285
286
289
290
291
292
293
299
303
304
#### frame 11 ####
