#### frame 13 ####
1
2
12
16
18
24
28
36
59
69
85
90
94
95
97
99
109
111
126
128
133
134
138
140
141
143
150
151
153
165
174
192
193
197
198
199
200
201
203
204
205
206
209
210
216
217
223
224
225
229
231
254
255
257
258
265
271
272
274
276
285
287
288
291
292
294
295
296
297
298
299
300
301
303
304
310
311
#### frame 14 ####
