#### frame 35 ####
35
36
48
49
65
67
75
76
78
79
80
89
94
95
104
105
106
107
108
109
112
126
128
130
132
136
140
141
143
148
150
157
158
168
174
184
185
187
191
193
195
196
200
201
206
207
219
220
229
231
232
240
243
248
249
250
264
265
269
275
279
281
284
285
289
292
293
294
295
296
297
300
303
305
307
309
310
#### frame 36 ####
