#### frame 12 ####
1
4
11
12
14
16
18
19
20
21
22
23
24
25
27
36
37
38
39
40
45
46
47
49
55
69
90
91
94
97
102
121
129
130
132
135
138
141
150
151
170
171
175
181
183
184
186
191
193
195
199
200
205
206
210
211
212
222
225
231
235
243
257
258
259
260
262
266
268
279
280
281
282
287
288
289
293
294
295
296
297
298
299
#### frame 13 ####
