#### frame 11 ####
11
12
22
27
29
30
63
67
69
70
74
83
88
93
94
95
97
116
117
128
129
132
138
140
143
148
150
156
157
158
165
180
193
195
200
204
205
206
207
210
211
212
213
214
217
220
222
223
224
225
228
229
230
231
232
236
238
248
249
250
255
257
258
262
263
267
273
274
284
285
286
289
293
294
298
300
304
305
#### frame 12 ####
