#### frame 16 ####
14
21
34
49
63
67
74
75
78
80
83
84
85
86
88
93
94
95
97
103
104
105
106
107
108
109
128
129
132
133
134
135
140
141
150
153
167
168
174
175
178
180
181
183
184
186
187
188
189
190
191
192
196
197
198
201
202
203
206
207
211
212
218
221
222
225
227
228
230
231
232
238
240
243
247
248
249
250
251
252
255
256
257
258
259
260
261
262
263
265
279
281
282
283
285
289
290
291
293
294
296
300
304
306
309
310
#### frame 17 ####
