#### frame 10 ####
27
59
60
63
64
65
66
67
68
75
83
84
89
90
94
95
97
98
126
127
128
129
130
132
134
135
136
138
153
156
157
168
170
174
175
180
182
183
186
189
191
196
197
198
201
202
204
209
213
224
225
227
228
231
232
236
240
243
247
248
249
250
254
258
259
260
264
265
266
269
270
275
282
283
288
290
291
292
296
297
299
300
301
302
303
310
311
#### frame 11 ####
