#### frame 15 ####
6
11
12
19
22
53
57
59
60
62
63
65
67
70
74
76
78
82
83
86
87
93
95
97
99
104
105
106
107
108
109
126
135
148
151
152
157
158
159
167
168
172
173
174
175
180
184
185
186
187
189
192
196
198
199
201
202
218
222
224
225
226
228
231
232
236
238
239
240
243
249
254
255
257
258
261
263
264
265
284
292
293
295
298
299
300
310
311
312
#### frame 16 ####
