#### frame 39 ####
53
59
66
67
68
69
76
94
118
119
121
124
125
126
128
132
133
134
135
136
138
140
141
150
151
157
158
173
174
177
178
179
180
183
184
188
190
197
198
199
205
206
210
211
212
215
216
226
227
228
231
232
238
239
240
243
247
248
249
250
269
275
279
280
281
284
289
290
291
292
294
295
296
297
299
303
304
307
309
310
311
#### frame 40 ####
