#### frame 10 ####
14
21
27
39
48
63
70
74
76
78
83
84
90
94
95
97
98
108
126
128
130
135
136
138
140
141
151
152
158
160
165
166
167
168
170
171
172
174
175
176
178
184
185
187
192
193
196
197
198
199
209
210
219
229
232
239
257
258
259
261
269
281
288
289
293
294
297
299
300
304
307
#### frame 11 ####
