#### frame 11 ####
16
22
32
40
42
55
63
67
68
70
74
78
84
95
97
106
107
109
126
143
148
150
151
153
156
160
170
174
175
176
183
188
191
192
193
195
197
198
199
200
201
202
203
205
206
209
210
211
212
213
214
217
218
219
220
221
222
223
224
225
226
229
230
231
232
236
239
249
257
258
261
266
267
268
279
280
281
282
283
285
287
289
290
291
292
293
294
295
296
297
300
301
302
303
304
305
306
307
309
310
#### frame 12 ####
