#### frame 67 ####
2
12
17
18
28
29
31
32
40
41
44
54
62
63
67
68
69
75
94
95
103
112
114
125
128
130
131
133
134
135
136
138
139
151
157
158
165
166
175
176
181
184
186
189
196
197
198
200
206
214
215
216
223
225
226
227
228
229
230
231
232
236
238
247
255
257
261
266
269
270
271
272
275
276
277
279
281
289
291
293
294
297
298
299
300
301
304
#### frame 68 ####
